Welcome to STA 198/GLHLTH 298!
…
## Dataset terminology

- Each row is an **observation**
- Each column is a **variable**

.small[

```r
life <- readr::read_csv("lifeexp/lifeexpectancy_infant.csv")

life
```

```
## # A tibble: 12,240 x 4
##   location sex     year lifeexp
##   <chr>    <chr>  <dbl>   <dbl>
## 1 Japan    Female  2019    87.7
## 2 Japan    Female  2018    87.6
## 3 Japan    Female  2017    87.6
## 4 Japan    Female  2016    87.4
## 5 Japan    Female  2015    87.3
## 6 Japan    Female  2014    87.1
## # … with 12,234 more rows
```
…
---

class: middle

# Why do we visualize?

---

## Anscombe's quartet/datasaurus dozen

.pull-left[

```
## # A tibble: 142 x 3
##   dataset     x     y
##   <chr>   <dbl> <dbl>
## 1 dino     55.4  97.2
## 2 dino     51.5  96.0
## 3 dino     46.2  94.5
## 4 dino     42.8  91.4
## 5 dino     40.8  88.3
## 6 dino     38.7  84.9
## # … with 136 more rows
```

```
## # A tibble: 142 x 3
##   dataset     x     y
##   <chr>   <dbl> <dbl>
## 1 star     58.2  91.9
## 2 star     58.2  92.2
## 3 star     58.7  90.3
## 4 star     57.3  89.9
## 5 star     58.1  92.0
## 6 star     57.5  88.1
## # … with 136 more rows
```
] 
.pull-right[

```
## # A tibble: 142 x 3
##   dataset      x     y
##   <chr>    <dbl> <dbl>
## 1 bullseye  51.2  83.3
## 2 bullseye  59.0  85.5
## 3 bullseye  51.9  85.8
## 4 bullseye  48.2  85.0
## 5 bullseye  41.7  84.0
## 6 bullseye  37.9  82.6
## # … with 136 more rows
```

```
## # A tibble: 142 x 3
##   dataset     x     y
##   <chr>   <dbl> <dbl>
## 1 dots     51.1  90.9
## 2 dots     50.5  89.1
## 3 dots     50.2  85.5
## 4 dots     50.1  83.1
## 5 dots     50.6  82.9
## 6 dots     50.3  83.0
## # … with 136 more rows
```
…
